module gitlab.com/eantyshev/go.krutilka/integration_tests

go 1.13

require (
	github.com/davecgh/go-spew v1.1.1 // indirect
	github.com/kr/pretty v0.1.0 // indirect
	github.com/streadway/amqp v0.0.0-20200108173154-1c71cc93ed71
	github.com/stretchr/testify v1.4.0
	gopkg.in/check.v1 v1.0.0-20180628173108-788fd7840127 // indirect
	gopkg.in/yaml.v2 v2.2.4 // indirect
)
